Q497|HARD|Tag3
Q229|MEDIUM|Tag1
Q250|MEDIUM|Tag2
Q220|MEDIUM|Tag1
Q296|MEDIUM|Tag3
Q387|MEDIUM|Tag6
Q433|HARD|Tag1
Q90|EASY|Tag3
Q326|MEDIUM|Tag4
Q438|HARD|Tag2
Q4|EASY|Tag1
Q410|HARD|Tag1
Q434|HARD|Tag2
Q341|MEDIUM|Tag5
Q335|MEDIUM|Tag5
Q369|MEDIUM|Tag6
Q429|HARD|Tag1
Q423|HARD|Tag1
Q28|EASY|Tag1
Q191|EASY|Tag6